"#Economic Vulnerability Subindex MVI"
Year,"Anguilla","Antigua and Barbuda","Aruba","Bahamas","Bahrain","Barbados","Belize","Bermuda","Virgin Islands, British","Cabo Verde","Cayman Islands","Comoros","Cook Islands","Cuba","Curaçao","Dominica","Dominican Republic","Fiji","Grenada","Guinea-Bissau","Guyana","Haiti","Jamaica","Kiribati","Saint Kitts and Nevis","Maldives","Marshall Islands","Mauritius","Micronesia, Federated States of","Montserrat","Nauru","Niue","Palau","Papua New Guinea","Saint Lucia","Samoa","Sao Tome and Principe","Seychelles","Singapore","Sint Maarten","Solomon Islands","Saint Vincent and the Grenadines","Suriname","Timor-Leste","Tokelau","Tonga","Trinidad and Tobago","Turks and Caicos Islands","Tuvalu","Vanuatu"
2002,No Data,23.46666666666667,No Data,25.74,36.59666666666666,15.206666666666669,29.613333333333337,No Data,No Data,41.20666666666666,No Data,27.829999999999995,No Data,28.73333333333333,No Data,29.70666666666667,12.666666666666668,26.596666666666664,23.65666666666667,27.986666666666665,33,13.363333333333332,30.040000000000003,57.04666666666667,36.78333333333333,24.006666666666668,79.15666666666667,25.29,59.84666666666667,No Data,49.60333333333333,No Data,61.39333333333333,15.956666666666669,41.54666666666667,41.760000000000005,48.68333333333334,45.14,51.153333333333336,No Data,38.96,40.61333333333334,53.61,37.20333333333334,No Data,31.406666666666663,22.09,No Data,33.42333333333333,30.273333333333333
2003,No Data,31.1,No Data,25.656666666666663,34.80333333333333,17.21666666666667,29.09,No Data,No Data,38.27333333333333,No Data,32.66,No Data,28.436666666666667,No Data,29.930000000000003,14.196666666666667,27.03,23,33.169999999999995,30.526666666666664,16.293333333333333,31.21333333333333,61.49,36.48,23.71666666666667,76.48666666666668,24.87333333333333,62.31,No Data,53.42,No Data,66.12666666666667,16.723333333333333,38.57666666666667,43.93333333333334,40.14333333333333,48.03,52.77,No Data,40.89,39.63,57.56666666666666,43.16,No Data,30.71,22.383333333333333,No Data,41.336666666666666,31.74333333333333
2004,No Data,37.42666666666667,No Data,26.506666666666668,34.27,18.49333333333333,27.96,No Data,No Data,39.513333333333335,No Data,35.92666666666667,No Data,28.386666666666667,No Data,28.616666666666667,14.04,26.806666666666665,23.236666666666668,34.49,31.39,19.316666666666663,31.67333333333333,72.32333333333334,33.86,24.403333333333336,73.83666666666667,24.53333333333333,57.36666666666667,No Data,55.04666666666667,No Data,69.54333333333334,16.71,38.56666666666666,37.65,40.95666666666667,47.09666666666666,55.23666666666667,No Data,42.97,37.94,55.59666666666666,43.123333333333335,No Data,30.57,23.6,No Data,49.82,30.57333333333333
2005,No Data,37.45,No Data,26.976666666666667,33.61333333333333,20.32333333333333,27.56666666666667,No Data,No Data,34.89333333333333,No Data,37.35,No Data,27.85333333333333,No Data,27.39333333333333,13.443333333333332,22.54,22.433333333333334,37.75666666666667,32.30666666666667,21.39,32.986666666666665,74.51333333333332,33.89333333333333,27.606666666666666,73.78333333333333,23.19333333333333,53.23666666666667,No Data,51.49333333333334,No Data,71.02333333333333,16.753333333333334,35.86666666666667,33.8,41.00333333333333,45.97333333333333,56.10666666666667,No Data,41.09666666666666,35.76,51.36,40.720000000000006,No Data,28.576666666666668,23.78666666666667,No Data,57.36,30.563333333333333
2006,No Data,37.01,No Data,26.92,34.17333333333333,20.61333333333333,25.8,No Data,No Data,33.480000000000004,No Data,35.486666666666665,No Data,26.37,No Data,25.826666666666668,13.563333333333333,22.33,22.44333333333333,37.01333333333333,33.98,23.54,33.71,66.67,35.56666666666666,30.68,69.93,21.843333333333334,48.153333333333336,No Data,40.18333333333333,No Data,74.97,16.93,34.49666666666667,30.93,43.59,43.02333333333333,57.14333333333333,No Data,38.00333333333333,35.95666666666666,49.97,38.16666666666666,No Data,27.426666666666662,24.306666666666665,No Data,56.63,30.806666666666665
2007,No Data,37.93333333333334,No Data,27.72333333333333,33.64666666666667,21.91333333333333,24.766666666666666,No Data,No Data,31.203333333333333,No Data,31.116666666666667,No Data,28.21,No Data,22.53666666666667,12.906666666666666,22.633333333333333,34.06999999999999,41.03666666666667,35.78,24.65333333333333,34.10666666666667,57.42999999999999,42.17666666666666,37.016666666666666,73.65,21.01333333333333,49.31666666666667,No Data,36.016666666666666,No Data,79.94666666666667,17.51,35.653333333333336,29.73,43.48333333333334,41.33333333333333,55.71666666666667,No Data,37.31,38.67666666666666,52.696666666666665,34.56,No Data,27.26,25.700000000000003,No Data,53.52,31.26333333333333
2008,No Data,38.84,No Data,28.293333333333333,35.016666666666666,19.57333333333333,25.380000000000003,No Data,No Data,33.626666666666665,No Data,27.69,No Data,29.53333333333333,No Data,22.28333333333333,12.436666666666667,22.66333333333333,33.63333333333334,40.36000000000001,35.20333333333333,24.97,33.85333333333334,48.98333333333333,49.833333333333336,41.34333333333333,76.53666666666666,20.35333333333333,50.053333333333335,No Data,32.303333333333335,No Data,81.74000000000001,18.596666666666664,37.586666666666666,29.54,42.64333333333333,41.196666666666665,56.153333333333336,No Data,38.9,40.77,55.29333333333333,38.05,No Data,26.16,27.273333333333333,No Data,50.62666666666667,34.156666666666666
2009,No Data,34.43333333333333,No Data,28.953333333333333,32.016666666666666,17.243333333333332,26.22,No Data,No Data,32.17,No Data,23.64333333333333,No Data,29.06666666666667,No Data,22.74333333333333,11.34,21.166666666666668,32.52,42.44666666666667,32.82666666666667,24.78,33.626666666666665,43.906666666666666,49.68666666666667,46.59666666666666,75.12666666666667,19.846666666666668,53.75666666666667,No Data,33.78333333333333,No Data,81.29333333333334,19.65,34.623333333333335,32.52,41.486666666666665,39.05,55.41,No Data,39.25666666666667,39.69,55.970000000000006,39.736666666666665,No Data,30.703333333333333,27.79,No Data,52.38,37.3
2010,No Data,31.49,No Data,25.94,31.05666666666667,16.11,26.98333333333333,No Data,No Data,30.56,No Data,21.88,No Data,27.14333333333333,No Data,22.58333333333333,11.166666666666666,21.05333333333333,30.87,44.760000000000005,32.14333333333333,24.86,32.53333333333334,37.18,49.59333333333333,49.95666666666666,74.03333333333333,19.453333333333333,53.93,No Data,41.62,No Data,81.45,19.71333333333333,33.85,33.64666666666666,39.27333333333333,38.69333333333333,55.086666666666666,No Data,36.96333333333333,38.553333333333335,55.57,43.07333333333333,No Data,28.65333333333333,30.076666666666668,No Data,53.98333333333334,37.73
2011,No Data,19.446666666666665,No Data,27.686666666666667,28.953333333333333,15.443333333333332,27.356666666666666,No Data,No Data,27.60666666666667,No Data,21.31,No Data,24.74,No Data,22.94,9,21.78,30.340000000000003,45.31,32.60333333333333,24.966666666666665,26.256666666666668,40.11333333333333,51.04666666666667,47.99,72.57666666666667,19.11,55.52666666666667,No Data,48.33,No Data,80.71666666666667,19.076666666666664,32.14666666666666,30.196666666666665,37.67333333333333,38.41666666666667,56.25,No Data,35.49,37.08333333333333,55.97,48.69666666666667,No Data,28.13,30.886666666666663,No Data,53.00000000000001,37.446666666666665
2012,No Data,26.523333333333333,No Data,29.49,24.556666666666665,15.116666666666667,28.203333333333333,No Data,No Data,27.44,No Data,20.80333333333333,No Data,24.126666666666665,No Data,23.51,8.936666666666667,25.293333333333337,32.876666666666665,45.35666666666667,29.58,25.32,24.376666666666665,39.266666666666666,50.74,43.84,73.67666666666668,19.04,55.31333333333333,No Data,49.93666666666667,No Data,80.9,18.24,31.35666666666667,27.62666666666667,36.32333333333334,38.82,56.33,No Data,42.28666666666667,37.36666666666667,54.37,46.77,No Data,27.023333333333333,29.82333333333333,No Data,46.91,35.61
2013,No Data,22.363333333333333,No Data,31.31,28.74666666666667,15.433333333333334,26.74,No Data,No Data,28.91333333333333,No Data,23.37333333333333,No Data,23.166666666666668,No Data,22.91,8.706666666666667,24.64,35.616666666666674,45.77,31.813333333333336,25.876666666666665,21.63666666666667,40.13666666666667,49.98333333333333,42.32333333333334,71.67666666666668,18.956666666666667,58.03333333333333,No Data,50.5,No Data,82.16000000000001,17.336666666666666,33.35333333333334,24.290000000000003,35.99666666666667,40.52666666666667,55.1,No Data,43.440000000000005,31.95,50.50666666666667,44.48,No Data,27.25,29.700000000000003,No Data,39.116666666666674,39.95666666666666
2014,No Data,21.703333333333333,No Data,31.226666666666667,36.39333333333333,14.21,25.57333333333333,No Data,No Data,29.15,No Data,24.476666666666667,No Data,23.06,No Data,23.51,8.083333333333334,26.950000000000003,38.52333333333333,43.91,32.00333333333334,26.23333333333333,21.27,39.25,50.5,44.60333333333334,72.33333333333334,18.793333333333337,59.41333333333333,No Data,51.766666666666666,No Data,83.31666666666666,16.653333333333332,33.28,22.41,34.72666666666667,40.22,54.03,No Data,43.63333333333333,26.68333333333333,41.28,41.43666666666667,No Data,27.076666666666668,29.72,No Data,38.68333333333334,40.56
2015,No Data,24.406666666666663,No Data,28.886666666666667,36.06,14.553333333333336,24.66333333333333,No Data,No Data,30.666666666666664,No Data,25.12333333333333,No Data,20.37333333333333,No Data,23.066666666666663,8.156666666666666,26.153333333333336,38.32333333333333,43.196666666666665,34.02,25.49,20.73,38.10333333333333,50.623333333333335,48.16666666666666,71.45333333333333,19.076666666666668,60.623333333333335,No Data,54.92333333333333,No Data,82.92333333333333,14.62,35.57666666666667,16.863333333333333,33.74333333333333,39.870000000000005,54.37666666666667,No Data,42.33,20.25,33.82,44.15666666666667,No Data,23.313333333333333,32.17333333333333,No Data,39.91666666666667,43.52333333333333
2016,No Data,23.25333333333333,No Data,24.520000000000003,38.19333333333333,12.346666666666668,21.91,No Data,No Data,30.91333333333333,No Data,24.703333333333333,No Data,20.12333333333333,No Data,25.536666666666665,8.919999999999998,25.9,43.56,43.51,33.91666666666667,25.21,19.65333333333333,39.766666666666666,50.71666666666667,48.84666666666666,72.75,18.16333333333333,32.330000000000005,No Data,51.21666666666667,No Data,80.73,13.856666666666667,36.44,11.143333333333333,33.82333333333333,41.09666666666667,54.333333333333336,No Data,42.91666666666666,21.17,32.446666666666665,41.19333333333333,No Data,29.19,32.833333333333336,No Data,39.68,43.400000000000006
2017,No Data,25.696666666666665,No Data,21.8,39.14,11.63,20.950000000000003,No Data,No Data,33.29666666666667,No Data,24.11,No Data,18.82,No Data,25.266666666666666,9.51,24.86,44.63333333333333,44.156666666666666,33.36333333333333,25.96333333333333,21.066666666666663,42.68,49.763333333333335,48.54333333333333,71.28666666666666,17.65,30.866666666666667,No Data,48.82666666666667,No Data,72.82333333333334,13.73,33.70333333333333,12.43,31.346666666666668,39.14666666666666,53.30333333333333,No Data,42.73333333333333,19.00333333333333,32.81,35.77666666666667,No Data,29.92,34.43333333333333,No Data,40.23333333333334,41.42333333333333
2018,No Data,22.576666666666668,No Data,21.293333333333333,37.74,10.986666666666666,20.68,No Data,No Data,30.026666666666667,No Data,25.05333333333333,No Data,19.10666666666667,No Data,22.37333333333333,10.05,26.313333333333333,45.20333333333333,44.32333333333334,32.47,26.71333333333333,21.383333333333336,48.50666666666667,49.13666666666667,46.61666666666667,69.38666666666667,17.206666666666663,28.79,No Data,47.196666666666665,No Data,69.36,13.84,30.946666666666665,14.703333333333331,33.403333333333336,37.946666666666665,52.78666666666667,No Data,43.23333333333333,22.76333333333333,36.156666666666666,27.066666666666663,No Data,30.25,32.85666666666666,No Data,38.830000000000005,38.75666666666667
2019,No Data,22.226666666666667,No Data,20.29,35.400000000000006,10.44,21.523333333333333,No Data,No Data,28.65,No Data,26.44666666666667,No Data,18.816666666666663,No Data,21.87333333333333,10.08,27.16,45.833333333333336,45.14,31.24666666666667,27.46666666666667,21.55,46.81,48.803333333333335,43.943333333333335,66.68333333333334,16.996666666666666,27.896666666666665,No Data,46.013333333333335,No Data,64.93666666666667,12.67666666666667,25.366666666666667,14.9,36.06666666666667,35.44,48.75666666666667,No Data,42.26,24.05333333333333,39.67333333333333,28.81,No Data,30.916666666666664,31.72,No Data,38.36666666666667,33.663333333333334
2020,No Data,21.87333333333333,No Data,18.086666666666662,35.17333333333333,10.93,19.46666666666667,No Data,No Data,30.036666666666665,No Data,27.433333333333334,No Data,17.78333333333333,No Data,23.236666666666665,10.236666666666666,26.35666666666667,45.31333333333333,42.59,35.22666666666667,28.516666666666666,23.27,42.05,48.580000000000005,40.82666666666667,66.27333333333334,17.78,25.506666666666664,No Data,41.18333333333333,No Data,62.06333333333333,12.383333333333333,21.296666666666667,14.843333333333334,34.55,33.843333333333334,45.81999999999999,No Data,42.473333333333336,23.106666666666666,43.20666666666666,29.35,No Data,30.596666666666664,28.46,No Data,36.853333333333325,32.42333333333333
2021,No Data,21.46333333333333,No Data,14.956666666666669,36.02,10.76,19.416666666666668,No Data,No Data,30.570000000000004,No Data,24.86,No Data,17.59,No Data,23.136666666666667,9.739999999999998,26.906666666666663,44.28666666666666,42.60333333333333,35.79333333333334,28.76333333333333,24.363333333333333,40.78,48.49666666666667,41.29,69.36,11.933333333333334,27.196666666666665,No Data,38.72333333333333,No Data,47.59333333333333,12.343333333333332,20.90333333333333,14.490000000000002,32.82666666666667,31.83,35.9,No Data,40.696666666666665,18.203333333333333,43.59333333333333,42.76,No Data,30.106666666666666,26.523333333333333,No Data,31.34,34.989999999999995
2022,No Data,28.75,No Data,18.83333333333333,36.27666666666666,10.876666666666669,23.386666666666667,No Data,No Data,38.83333333333333,No Data,22.46666666666667,No Data,17.076666666666668,No Data,24.076666666666668,11.19,32.92333333333333,48.47333333333333,42.620000000000005,42.89,29.75,24.22666666666667,39.02333333333333,48.44,51.44,70.88,15.43,27.023333333333333,No Data,39.63333333333333,No Data,44.50666666666666,12.46,27.74,14.686666666666667,34.29333333333334,35.27333333333333,36.71,No Data,41.78666666666667,17.973333333333336,44.20333333333333,46.91,No Data,29.66,25.203333333333333,No Data,16.516666666666666,39.05333333333333
